<svg width="143" height="44" viewBox="0 0 143 44" fill="none" xmlns="http://www.w3.org/2000/svg">
<path d="M40.679 16.2351C40.679 19.1976 40.679 22.1601 40.679 25.1226C40.679 25.7625 40.679 26.4261 40.4183 27.0423C40.2998 27.3267 40.1339 27.5874 39.8021 27.6111C39.4703 27.6348 39.257 27.3978 39.0911 27.1608C38.8778 26.8527 38.8541 26.4972 38.8304 26.1417C38.5934 23.1318 38.8304 20.0982 38.7593 17.0883C38.7356 15.8559 38.7356 14.5998 38.546 13.3674C38.5223 13.2726 38.546 13.1778 38.5223 13.1067C38.2853 12.1824 38.0246 11.1633 36.9581 10.9263C35.9153 10.6656 35.3939 11.5425 34.8488 12.2535C33.8534 13.5807 33.3794 15.1449 32.8343 16.6854C31.7678 19.6005 30.725 22.5393 29.6586 25.4544C29.469 25.9521 29.2557 26.4498 28.9713 26.9001C28.2603 28.0377 27.3597 28.0614 26.625 26.9238C26.0325 25.9995 25.7007 24.933 25.3926 23.8902C24.3498 20.5248 23.1411 17.2305 21.8613 13.9362C21.5058 13.0356 21.0081 12.2535 20.3208 11.5662C19.3491 10.5945 18.1641 10.7841 17.5953 12.0402C17.0265 13.2963 16.9317 14.6709 16.908 16.0455C16.8132 19.1976 16.8606 22.4445 16.8369 25.6677C16.8369 26.0706 16.8369 26.4972 16.6473 26.9001C16.4814 27.2556 16.2444 27.6111 15.8178 27.5874C15.3438 27.5637 15.1068 27.2319 15.012 26.7816C14.8224 25.881 14.8461 24.9567 14.8461 24.0324C14.8224 18.6762 14.8224 13.32 14.8224 7.96386C14.8224 7.63206 14.8224 7.30026 14.8698 6.99216C15.0594 5.87827 15.1305 4.66958 16.5051 4.31408C18.0219 3.91118 19.6098 4.50368 20.3919 5.78347C20.6763 6.25747 20.937 6.77887 21.1266 7.30026C22.0983 10.0495 23.0463 12.8223 24.0417 15.5952C24.5157 16.9461 25.1082 18.2259 26.0799 19.3161C27.2175 20.5722 28.6632 20.5485 29.7297 19.2213C30.3221 18.4866 30.725 17.6097 31.0568 16.7328C32.3129 13.4622 33.5453 10.2154 34.8014 6.94477C35.3228 5.57017 36.1286 4.50368 37.7165 4.26668C39.6362 3.98228 40.6553 4.76438 40.679 6.68407C40.7027 9.83615 40.679 13.0356 40.679 16.2351Z" fill="#F5822A"/>
<path d="M141.735 4.81177C141.712 5.21467 141.498 5.57016 141.261 5.92566C139.91 7.94015 138.536 9.95464 137.232 11.9928C135.881 14.1021 135.81 16.2351 137.209 18.3918C138.488 20.3589 139.816 22.2786 141.167 24.1983C141.641 24.8856 142.138 25.5492 142.399 26.355C142.541 26.8053 142.707 27.3504 142.328 27.7059C141.901 28.0851 141.38 27.8244 140.93 27.5874C140.147 27.1608 139.673 26.4261 139.223 25.7151C138.346 24.2694 137.493 22.8237 136.592 21.378C136.071 20.5485 135.431 19.8138 134.578 19.2687C133.488 18.6051 132.184 18.6762 131.189 19.5057C130.478 20.0982 129.933 20.8329 129.435 21.615C128.463 23.2029 127.658 24.9093 126.52 26.4024C126.117 26.9475 125.667 27.4926 124.98 27.6822C124.221 27.8718 123.889 27.54 124.055 26.7816C124.197 26.1654 124.529 25.644 124.885 25.1226C126.188 23.1792 127.492 21.2358 128.772 19.2924C130.881 16.1166 130.81 14.1495 128.629 11.0685C127.468 9.43325 126.378 7.72685 125.311 6.02046C124.956 5.45166 124.292 4.66957 124.98 4.12447C125.667 3.57937 126.33 4.33777 126.876 4.83547C127.824 5.66496 128.345 6.82626 129.009 7.86905C129.696 8.93555 130.312 10.0494 131.213 10.9737C132.232 11.9928 133.535 12.1824 134.768 11.4477C135.573 10.9737 136.166 10.2864 136.64 9.48065C137.327 8.34305 137.967 7.18176 138.654 6.04416C139.176 5.21467 139.745 4.40887 140.787 4.14817C141.475 3.91117 141.712 4.19557 141.735 4.81177Z" fill="#F5822A"/>
<path d="M83.8602 16.5906C83.9313 13.2489 83.7417 9.90723 83.9787 6.56555C84.0972 4.85915 84.5238 4.33776 86.2302 4.21926C89.4534 3.98226 92.6766 4.10076 95.8998 4.19556C96.516 4.21926 97.4402 4.24296 97.4165 5.07245C97.3928 5.80715 96.4923 5.71235 95.8998 5.78345C94.2645 6.02045 92.6529 5.75975 91.0176 5.78345C87.3915 5.87825 85.6614 7.91644 86.2302 11.5188C86.6094 13.9362 87.9129 15.1449 90.3777 15.3345C91.9893 15.4767 93.6246 15.2871 95.2599 15.5004C95.7813 15.5715 96.5634 15.453 96.6108 16.1877C96.6582 16.9935 95.8287 16.9698 95.2836 17.0409C94.383 17.1594 93.4587 17.1831 92.5344 17.1831C91.6812 17.1831 90.828 17.1594 89.9748 17.2542C87.6759 17.5386 86.2776 18.9843 86.1591 21.3069C86.0643 22.9422 86.088 24.5538 85.9932 26.1891C85.9458 26.9001 85.8036 27.777 84.903 27.777C83.9313 27.777 83.9076 26.829 83.9076 26.1654C83.8365 23.5821 83.8602 21.0225 83.8602 18.4392C83.8602 17.823 83.8602 17.2068 83.8602 16.5906Z" fill="#F5822A"/>
<path d="M9.41884 13.4622C9.41884 11.2107 9.41884 8.95919 9.41884 6.7077C9.41884 6.0915 9.41884 5.45161 9.67954 4.88281C9.84543 4.50361 10.1535 4.29031 10.5801 4.29031C11.0067 4.26661 11.1015 4.62211 11.2437 4.88281C11.5755 5.5464 11.6466 6.2574 11.6229 6.9447C11.5755 11.8743 11.8125 16.8276 11.5044 21.7571C11.1963 26.5208 8.11534 28.3931 4.25226 28.2509C3.09096 28.2035 1.97707 27.9665 0.957975 27.3503C0.246978 26.9237 -0.0611207 26.3312 0.00997895 25.5017C0.0573787 24.8381 0.365477 24.7196 0.957975 24.8855C1.36087 25.004 1.71637 25.2173 2.07187 25.4069C5.05806 27.1844 8.04424 25.952 8.99224 22.6103C9.53734 20.7143 9.37144 18.7946 9.48994 16.875C9.56104 15.7137 9.48994 14.5761 9.48994 13.4148C9.46624 13.4622 9.44254 13.4622 9.41884 13.4622Z" fill="#F4822B"/>
<path d="M75.4704 3.15277C74.7357 4.10077 74.5698 4.97766 74.3091 5.80716C73.7877 7.53725 73.4085 7.79795 71.7022 7.41875C70.6594 7.18175 69.8299 7.46615 69.0715 8.10605C68.6212 8.48525 68.1946 8.88814 67.7443 9.29104C67.531 9.48064 67.3177 9.59914 67.0333 9.40954C66.7726 9.24364 66.7252 9.03034 66.7726 8.72225C66.82 8.24825 67.0333 7.86905 67.294 7.51355C67.5784 7.13435 67.8628 6.75515 68.2183 6.42336C69.7588 4.95396 71.2045 3.38977 72.4131 1.63598C73.1478 0.569482 74.1432 -0.0230152 75.4941 0.000684665C76.1103 0.000684665 76.3947 0.166584 76.3947 0.853881C76.4421 3.55567 76.0866 6.21006 75.5889 8.86444C75.3519 10.0731 75.2097 11.3292 74.8068 12.4905C74.7594 12.6564 74.6883 12.8223 74.6172 12.9882C74.5224 13.2015 74.3328 13.32 74.1195 13.2726C73.8351 13.2015 73.9062 12.9408 73.9536 12.7512C74.1906 11.5899 74.475 10.4523 74.712 9.29104C75.0675 7.34765 75.3045 5.38056 75.4704 3.15277Z" fill="white"/>
<path d="M47.3387 2.93949C47.3387 0.853896 48.6896 0.0717993 50.3485 0.972395C53.3347 2.58399 55.5862 5.00138 57.6718 7.58467C57.814 7.77426 57.9325 7.98756 58.0036 8.20086C58.0984 8.43786 58.0036 8.67486 57.814 8.84076C57.577 9.07776 57.3874 8.84076 57.1978 8.72226C57.0319 8.60376 56.8897 8.43786 56.7475 8.29566C55.8943 7.51357 55.2781 7.48987 54.4249 8.24826C53.4295 9.12516 52.8607 9.03036 52.2919 7.82166C51.5572 6.25747 50.8462 4.71698 49.685 3.41348C49.3769 3.05799 49.0688 2.67879 48.6659 2.44179C48.2867 2.20479 48.0497 2.27589 48.1208 2.79729C48.1682 3.12909 48.2156 3.43718 48.2867 3.74528C48.8081 5.71237 49.3532 7.67947 49.8745 9.64656C49.993 10.0732 50.2774 10.7605 49.7324 10.879C49.2584 10.9975 49.2584 10.2628 49.1399 9.85986C48.737 8.24826 48.3578 6.63667 47.9786 5.02508C47.8127 4.26668 47.1965 3.62678 47.3387 2.93949Z" fill="white"/>
<path d="M75.9444 37.8494C75.423 38.8448 74.9016 39.8639 74.3802 40.8593C74.0484 41.5229 73.6929 42.1628 73.3848 42.8264C73.2426 43.1108 73.1004 43.3004 72.7212 43.3004C72.342 43.3004 72.1998 43.0871 72.0576 42.8027C71.2756 41.2859 70.4935 39.7454 69.6877 38.2286C69.6166 38.0864 69.5218 37.9442 69.2611 37.802C69.2611 39.4136 69.2611 41.0015 69.2611 42.6131C69.2611 42.9923 69.2611 43.3241 68.716 43.2767C68.3842 43.253 68.2183 43.1582 68.2183 42.8264C68.2183 40.883 68.2183 38.9159 68.2183 36.9725C68.2183 36.7355 68.2183 36.4274 68.5501 36.4748C69.1426 36.5459 69.8536 36.1193 70.2802 36.9488C70.9912 38.3708 71.7259 39.7928 72.4605 41.2148C72.5316 41.357 72.6264 41.4992 72.7923 41.7836C73.5981 40.1957 74.3565 38.7263 75.0912 37.2806C75.4704 36.5222 76.1577 36.2378 76.9635 36.4748C77.2479 36.5459 77.2479 36.7355 77.2479 36.9488C77.2479 38.8922 77.2479 40.8593 77.2479 42.8027C77.2479 43.3004 76.9635 43.2767 76.6317 43.3004C76.2051 43.3241 76.0629 43.1582 76.0629 42.7316C76.0866 41.12 76.0629 39.5084 76.0629 37.8968C76.0629 37.8968 76.0155 37.8731 75.9444 37.8494Z" fill="white"/>
<path d="M24.0891 41.6414C24.0891 42.0206 24.0891 42.3998 24.0891 42.8027C24.0891 43.016 24.1839 43.3241 23.8758 43.3952C23.6151 43.4663 23.3307 43.4426 23.2359 43.0871C23.0937 42.5657 22.8567 42.7553 22.5249 42.9212C21.2925 43.5848 20.0127 43.5848 18.7566 43.1108C16.5288 42.2813 15.8652 39.3662 17.4768 37.5888C18.9462 35.9772 22.1457 35.8824 23.4729 37.4465C23.6862 37.6835 24.1128 38.0864 23.8047 38.3234C23.5203 38.5604 22.9989 38.7026 22.6197 38.0864C22.0035 37.0911 20.9607 37.0437 19.9416 37.1858C18.9699 37.3043 18.33 37.9205 18.0693 38.8448C17.7612 39.9587 17.8086 41.0252 18.6381 41.9258C19.4439 42.7553 20.463 42.8027 21.5295 42.542C21.9087 42.4472 22.2405 42.2576 22.5012 41.9495C22.7856 41.6177 22.9989 41.2148 22.8567 40.8119C22.7145 40.3853 22.2405 40.646 21.9324 40.5986C21.648 40.5512 21.3399 40.5749 21.0555 40.5986C20.7711 40.5986 20.6052 40.5275 20.6052 40.1957C20.6289 39.9113 20.7711 39.8402 21.0081 39.8402C21.9324 39.8402 22.833 39.8402 23.7573 39.8402C24.0891 39.8402 24.1365 40.0298 24.1365 40.3142C24.0891 40.7408 24.0891 41.1911 24.0891 41.6414Z" fill="white"/>
<path d="M135.17 41.5229C135.739 41.2385 136.142 41.2622 136.592 41.831C137.303 42.7316 139.508 42.9449 140.479 42.3287C140.811 42.1154 141.095 41.831 141.048 41.4044C141.024 41.0015 140.74 40.7882 140.384 40.6223C139.65 40.2905 138.82 40.2905 138.062 40.1009C137.777 40.0298 137.469 39.9824 137.185 39.9113C136.095 39.6269 135.526 39.0107 135.526 38.2049C135.526 37.4465 136.118 36.8067 137.138 36.546C138.654 36.1668 140.147 36.1905 141.427 37.257C141.641 37.4465 142.115 37.731 141.783 38.0627C141.546 38.2997 141.095 38.3945 140.716 37.9442C139.982 37.0674 138.441 36.8541 137.375 37.3754C137.043 37.5413 136.735 37.7309 136.735 38.1338C136.735 38.5841 137.066 38.8448 137.446 38.9396C138.062 39.1055 138.702 39.2477 139.342 39.3662C140.076 39.5084 140.811 39.6032 141.451 39.9824C142.47 40.5512 142.612 41.6651 141.854 42.5183C140.669 43.8455 135.905 43.8455 135.17 41.5229Z" fill="white"/>
<path d="M1.906 37.5177C1.906 39.39 1.906 41.0253 1.906 42.6606C1.906 42.9687 2.0008 43.3242 1.4557 43.3479C0.886902 43.3716 0.934302 43.0398 0.934302 42.6606C0.934302 40.9542 0.910602 39.2241 0.958002 37.5177C0.958002 37.1859 0.673603 36.6408 1.2424 36.5697C1.7638 36.4986 2.3326 36.3801 2.75919 36.9489C3.89679 38.4183 5.10548 39.8403 6.29048 41.286C6.40898 41.4519 6.55118 41.5941 6.81188 41.9259C6.81188 40.5276 6.81188 39.2952 6.81188 38.0865C6.81188 37.7073 6.83558 37.3281 6.81188 36.9252C6.81188 36.5223 7.04887 36.5223 7.33327 36.5223C7.61767 36.5223 7.75987 36.6171 7.75987 36.9252C7.75987 38.9397 7.75987 40.9542 7.75987 42.9687C7.75987 43.1583 7.75987 43.3479 7.49917 43.3479C7.09627 43.3479 6.66968 43.4664 6.36158 43.0635C5.76908 42.3051 5.12918 41.5467 4.51299 40.7883C3.70719 39.7218 2.87769 38.7027 1.906 37.5177Z" fill="white"/>
<path d="M59.7811 38.0153C59.2834 38.2523 58.9042 38.3708 58.4302 37.802C57.7666 36.9726 55.8232 36.8778 54.9463 37.494C54.3538 37.9205 54.4249 38.5367 55.1122 38.8685C55.7284 39.1766 56.4157 39.224 57.0793 39.3425C57.7903 39.461 58.4776 39.5558 59.1412 39.8876C60.3973 40.5275 60.5158 41.8784 59.4019 42.7553C58.0747 43.7744 53.8561 43.7507 53.0029 41.594C53.8087 41.2148 53.8087 41.2148 54.3538 41.7836C55.1596 42.6605 57.2926 42.9449 58.3354 42.305C58.6672 42.1154 58.9042 41.8547 58.8805 41.4518C58.8568 40.9778 58.5487 40.6697 58.1221 40.5749C57.3163 40.3616 56.5105 40.2194 55.7047 40.0535C55.1359 39.935 54.5434 39.8165 54.0457 39.461C53.2873 38.8685 53.1688 37.8968 53.785 37.2096C55.0174 35.8824 59.236 36.0483 59.7811 38.0153Z" fill="white"/>
<path d="M9.79804 39.864C9.79804 38.9871 9.82174 38.0865 9.79804 37.2096C9.77434 36.6882 9.91654 36.4749 10.4853 36.4986C12.0021 36.546 13.4952 36.4986 15.012 36.5223C15.2964 36.5223 15.7467 36.3327 15.7467 36.8778C15.7467 37.494 15.2727 37.2807 14.9646 37.2807C13.8981 37.3044 12.8316 37.3044 11.7651 37.2807C11.1726 37.257 10.983 37.4466 11.0067 38.0391C11.0778 39.6744 10.8171 39.3663 12.3576 39.4137C12.9501 39.4374 13.5426 39.4137 14.1351 39.4137C14.4195 39.4137 14.775 39.3426 14.7513 39.8166C14.7276 40.2431 14.3958 40.1247 14.1588 40.1247C13.3293 40.1484 12.4998 40.1484 11.6703 40.1247C11.2437 40.1247 11.0541 40.2195 11.0304 40.7171C10.9356 42.542 10.9119 42.542 12.7368 42.542C13.59 42.542 14.4432 42.542 15.3201 42.542C15.6519 42.542 15.9126 42.5657 15.8889 42.9923C15.8652 43.4189 15.5334 43.3241 15.2964 43.3241C13.6611 43.3241 12.0495 43.3241 10.4142 43.3478C9.94024 43.3478 9.79805 43.1819 9.82175 42.7316C9.79805 41.7599 9.79804 40.8119 9.79804 39.864Z" fill="white"/>
<path d="M41.0108 41.1675C40.5605 43.1346 38.2853 43.7271 36.4367 43.2768C34.6118 42.8502 33.569 41.0964 33.9008 39.0819C34.1852 37.3992 35.8679 36.2142 37.8113 36.3564C38.9726 36.4275 40.0628 36.6882 40.679 37.7784C40.8212 37.9917 41.2478 38.3235 40.7975 38.5605C40.4894 38.7264 40.0154 38.8686 39.731 38.3235C39.1622 37.257 38.2142 36.9963 37.1003 37.1859C35.9864 37.3518 35.2517 38.2761 35.1332 39.5796C35.0147 40.9779 35.6546 42.1392 36.7685 42.5184C37.9535 42.9213 39.1385 42.5658 39.731 41.4519C40.1339 40.7646 40.5605 41.1438 41.0108 41.1675Z" fill="white"/>
<path d="M65.2321 27.9665C65.2084 28.8434 63.6916 30.0995 62.8147 30.0521C61.5349 29.981 60.658 29.1515 60.5158 27.9191C60.4921 27.6821 60.4684 27.4451 60.6106 27.2318C61.2979 26.1654 62.4592 26.2602 63.4783 26.2365C64.213 26.2365 64.8055 26.8052 65.161 27.5162C65.2084 27.6821 65.2084 27.8717 65.2321 27.9665Z" fill="white"/>
<path d="M99.1703 39.864C99.1703 38.9397 99.194 38.0391 99.1703 37.1148C99.1466 36.5934 99.3362 36.4749 99.8339 36.4512C100.332 36.4512 100.426 36.6645 100.403 37.0911C100.379 38.5605 100.45 40.0536 100.379 41.5229C100.332 42.3998 100.663 42.5657 101.422 42.5183C102.275 42.4709 103.128 42.4946 103.981 42.5183C104.266 42.5183 104.669 42.3998 104.669 42.9449C104.669 43.4426 104.29 43.3004 104.029 43.3004C102.607 43.3004 101.185 43.3004 99.7628 43.3241C99.3125 43.3241 99.1466 43.1819 99.1466 42.7079C99.194 41.7599 99.1703 40.812 99.1703 39.864Z" fill="white"/>
<path d="M125.572 39.9113C125.572 40.8593 125.548 41.8073 125.572 42.7553C125.596 43.2767 125.335 43.3241 124.908 43.3241C124.482 43.3241 124.34 43.1819 124.34 42.7553C124.363 40.8356 124.363 38.9159 124.34 36.9963C124.34 36.5223 124.577 36.4749 124.956 36.4749C125.335 36.4749 125.572 36.5223 125.572 36.9963C125.548 37.9679 125.572 38.9396 125.572 39.9113Z" fill="white"/>
<path d="M105.711 39.8166C105.711 38.8923 105.735 37.9917 105.711 37.0674C105.688 36.5934 105.877 36.4749 106.328 36.4512C106.802 36.4512 106.92 36.6408 106.92 37.0674C106.896 38.9634 106.896 40.8594 106.92 42.7316C106.92 43.253 106.659 43.2767 106.257 43.2767C105.83 43.3004 105.688 43.1108 105.711 42.7079C105.711 41.7836 105.711 40.812 105.711 39.8166Z" fill="white"/>
<path d="M97.1796 39.9824C97.1796 40.9067 97.1559 41.8073 97.1796 42.7316C97.2033 43.2056 97.0374 43.3478 96.5634 43.3241C96.1368 43.3241 95.9235 43.253 95.9235 42.7553C95.9472 40.8593 95.9472 38.9633 95.9235 37.091C95.9235 36.617 96.0894 36.4985 96.5397 36.4985C96.9663 36.4985 97.1796 36.5933 97.1559 37.091C97.1559 38.039 97.1796 39.0107 97.1796 39.9824Z" fill="white"/>
<path d="M43.4282 39.8639C43.4282 40.8119 43.4045 41.7599 43.4282 42.7079C43.4519 43.1819 43.286 43.3241 42.812 43.3241C42.3617 43.3241 42.1958 43.2056 42.1958 42.7316C42.2195 40.8356 42.2195 38.9396 42.1958 37.0437C42.1958 36.6408 42.3143 36.4749 42.7409 36.4749C43.1438 36.4749 43.4282 36.4986 43.4045 37.0437C43.4045 37.9679 43.4282 38.9159 43.4282 39.8639Z" fill="white"/>
<path d="M66.2749 39.9114C66.2749 40.8356 66.2512 41.7362 66.2749 42.6605C66.2749 43.0871 66.2275 43.3241 65.7061 43.3004C65.2558 43.3004 65.0899 43.1819 65.0899 42.7079C65.1136 40.8357 65.1136 38.9871 65.0899 37.1148C65.0899 36.7119 65.1373 36.4749 65.6587 36.4512C66.2038 36.4512 66.2749 36.6882 66.2749 37.1385C66.2512 38.0865 66.2749 39.0108 66.2749 39.9114Z" fill="white"/>
<path d="M111.162 35.8349C110.925 35.8823 110.783 35.8349 110.712 35.6927C110.594 35.4557 110.783 35.3846 110.949 35.3135C111.636 35.0291 112.3 34.7684 112.987 34.4603C113.319 34.3181 113.485 34.484 113.604 34.7447C113.746 35.0528 113.438 35.0528 113.272 35.1239C112.537 35.3846 111.802 35.6216 111.162 35.8349Z" fill="white"/>
<path d="M31.199 34.8158C31.1753 35.0054 31.0331 35.0528 30.9146 35.1002C30.2036 35.3372 29.5163 35.5742 28.8053 35.8112C28.592 35.8823 28.3787 35.9297 28.2602 35.6927C28.118 35.3846 28.4024 35.3609 28.5683 35.2898C29.1845 35.0291 29.8244 34.7921 30.4406 34.5078C30.8909 34.2945 31.0568 34.5077 31.199 34.8158Z" fill="white"/>
<path fill-rule="evenodd" clip-rule="evenodd" d="M121.448 7.9876C118.983 4.57482 115.428 3.29502 111.352 3.24762C111.14 3.24762 110.931 3.23975 110.726 3.23202C110.429 3.22079 110.14 3.20988 109.859 3.22392C105.712 3.62682 102.322 5.30951 100.189 9.07779C99.1703 10.9027 98.72 12.8698 98.5067 14.908C98.009 19.5768 100.213 24.7197 104.74 27.0186C107.489 28.4406 110.38 28.6776 113.367 28.251C116.305 27.8481 118.818 26.6157 120.808 24.3405C122.515 22.3971 123.344 20.0982 123.581 17.5624C123.889 14.1496 123.51 10.8553 121.448 7.9876ZM113.177 26.5208C117.964 25.5017 121.235 21.1883 121.211 15.8322C121.234 15.1631 121.123 14.4041 121.007 13.6209L120.998 13.557C120.382 9.29098 117.538 6.18629 113.272 5.1435C109.48 4.2192 105.261 5.8308 102.939 9.10138C101.043 11.7558 100.687 14.7657 101.09 17.9177C101.825 23.7953 107.394 27.7532 113.177 26.5208Z" fill="#F5822A"/>
<path fill-rule="evenodd" clip-rule="evenodd" d="M70.849 20.5248C71.5125 19.0791 72.5553 18.2733 74.238 18.5577C74.3881 18.5577 74.5356 18.5603 74.6831 18.563C74.978 18.5682 75.2729 18.5735 75.5889 18.5577C75.8259 18.5577 76.134 18.4392 75.8022 18.1311C75.3793 17.7384 74.9804 17.3168 74.581 16.8946C73.7272 15.9922 72.8713 15.0874 71.7732 14.4576C71.6667 14.3972 71.5605 14.3339 71.4541 14.2705C70.6848 13.8122 69.9049 13.3475 68.9056 13.8888C66.9385 14.9553 65.635 16.5432 65.0662 18.7236C64.8766 19.4109 64.7581 20.0745 65.4928 20.6196C65.9431 20.9514 66.109 21.5439 66.0853 22.1364C66.0813 22.2351 66.0767 22.3339 66.0721 22.4326C66.0491 22.9264 66.026 23.4201 66.0853 23.9139C66.1801 24.7908 66.4171 25.644 67.294 26.1417C67.3327 26.1659 67.3713 26.195 67.4104 26.2244C67.5629 26.3391 67.7215 26.4585 67.9102 26.3076C68.0761 26.1654 68.0524 25.9047 67.9813 25.7151C67.7857 25.0891 67.8161 24.4471 67.846 23.8155C67.8523 23.6818 67.8586 23.5486 67.8628 23.4162C67.9102 21.9231 68.6212 21.1647 70.0195 21.0699C70.4224 21.0462 70.6831 20.8803 70.849 20.5248ZM70.9201 17.3491C71.4415 16.8751 72.0814 16.5196 72.982 17.0173C72.745 16.3063 72.3658 16.0693 71.8681 16.0693C71.5171 16.0766 71.1684 16.0659 70.8213 16.0552C70.0432 16.0312 69.2729 16.0075 68.5027 16.1878C68.4956 16.1902 68.4883 16.1926 68.4807 16.1952C68.3373 16.2438 68.1211 16.317 68.0761 16.0693C68.0287 15.6664 67.8865 15.7612 67.7443 15.9982C67.6562 16.1479 67.5681 16.2968 67.4804 16.4452C67.0958 17.0954 66.717 17.7358 66.3697 18.3919C66.2512 18.5815 66.3223 18.9133 66.3934 19.1503C66.4574 19.3424 66.6753 19.2653 66.8218 19.2135C66.838 19.2078 66.8533 19.2024 66.8674 19.1977C67.2056 19.0716 67.5494 18.9607 67.8927 18.85C68.9686 18.503 70.0397 18.1576 70.9201 17.3491Z" fill="white"/>
<path fill-rule="evenodd" clip-rule="evenodd" d="M57.814 22.2787C57.9799 23.3689 58.1458 24.4591 58.3591 25.7389C58.5526 25.4529 58.7431 25.1937 58.9232 24.9487C59.2505 24.5035 59.5434 24.1051 59.7574 23.677C61.132 21.0226 60.7528 18.3919 59.3545 15.9034C58.4539 14.3156 57.1267 13.8416 55.3492 14.3393C53.8324 14.7659 52.4815 15.5717 51.2729 16.567C50.8937 16.8751 50.6567 17.2306 50.7278 17.7994C50.9647 17.7283 51.1543 17.6809 51.3439 17.6336L51.344 17.6335C52.6237 17.2543 53.4295 17.6098 54.1642 18.7237C54.6382 19.4584 55.2781 20.0509 56.1076 20.3353C57.0793 20.6434 57.6481 21.2833 57.814 22.2787ZM57.1097 15.9681C56.8013 15.9185 56.4936 15.8691 56.1787 15.856C55.8218 15.9154 55.4742 15.9563 55.1359 15.996C54.9351 16.0196 54.7376 16.0428 54.5434 16.0693C54.4012 16.093 54.2353 16.1641 54.2353 16.33C54.2353 16.4248 54.3301 16.5433 54.4249 16.5907C54.94 16.8731 55.426 17.2022 55.9114 17.5309C56.8108 18.1399 57.7083 18.7476 58.7857 19.0554C58.8219 19.0653 58.86 19.077 58.8993 19.0891C59.1425 19.164 59.4315 19.2529 59.6152 19.008C59.8048 18.7473 59.7574 18.4392 59.5678 18.1785C59.3308 17.8704 59.1886 17.515 59.0938 17.1358C58.823 16.1654 58.7886 16.162 57.988 16.082C57.9478 16.078 57.9056 16.0738 57.8614 16.0693C57.6075 16.0481 57.3583 16.0081 57.1097 15.9681Z" fill="white"/>
<path fill-rule="evenodd" clip-rule="evenodd" d="M92.9136 39.6506C93.0502 39.719 93.1715 39.775 93.2829 39.8265C93.4807 39.9178 93.6474 39.9948 93.8142 40.1009C94.7859 40.7408 94.8096 42.0206 93.8853 42.7079C93.3876 43.0871 92.8188 43.2293 92.2263 43.253C91.4582 43.2815 90.6987 43.2843 89.9374 43.2872C89.4303 43.289 88.9223 43.2909 88.4106 43.3004C87.9366 43.3241 87.8181 43.1108 87.8181 42.6842C87.8418 40.8356 87.8418 38.9633 87.8181 37.1148C87.8181 36.6882 87.9129 36.4749 88.4106 36.4749C89.0149 36.4867 89.6193 36.4926 90.2236 36.4986C90.828 36.5045 91.4323 36.5104 92.0367 36.5223C92.2737 36.5223 92.5107 36.5697 92.724 36.6171C93.4824 36.8067 94.1223 37.1622 94.2645 38.0153C94.383 38.6789 93.9564 39.1529 92.9136 39.6506ZM90.591 42.4946C88.8846 42.5183 88.6476 42.2339 88.9557 40.4564C89.0031 40.1483 89.1216 40.0535 89.406 40.0535C89.7172 40.0624 90.0284 40.0612 90.3383 40.0601C90.8545 40.0583 91.3673 40.0564 91.8708 40.1009C92.7951 40.172 93.3401 40.6934 93.2927 41.3807C93.2224 42.2712 92.5032 42.3738 91.8456 42.4677L91.8234 42.4709C91.5369 42.5214 91.2505 42.5121 90.9555 42.5024H90.9555C90.8356 42.4985 90.7143 42.4946 90.591 42.4946ZM90.1644 39.39H90.6384C90.781 39.3749 90.938 39.3742 91.1047 39.3734C91.4641 39.3717 91.8689 39.3698 92.2737 39.2241C92.7477 39.0582 93.0558 38.7264 93.0558 38.2524C93.0558 37.7547 92.7003 37.494 92.2263 37.3518C91.7855 37.2238 91.3446 37.2238 90.9038 37.2238C90.6099 37.2238 90.3161 37.2238 90.0222 37.1859C89.1927 37.0911 88.8846 37.3518 88.9557 38.2287C89.0034 38.8848 88.955 39.1686 89.0736 39.2917C89.1905 39.4132 89.4699 39.3782 90.1644 39.39Z" fill="white"/>
<path fill-rule="evenodd" clip-rule="evenodd" d="M121.093 42.4709C121.401 43.2293 121.922 43.49 122.799 43.2056C122.706 43.0434 122.616 42.883 122.526 42.7242C122.156 42.0711 121.801 41.4457 121.401 40.8356C121.116 40.409 120.951 40.1246 121.638 39.8876C122.301 39.6506 122.681 39.0818 122.681 38.3708C122.681 37.6361 122.207 37.1859 121.614 36.8541C121.211 36.6408 120.785 36.5223 120.334 36.5223C119.718 36.5104 119.096 36.5045 118.474 36.4986C117.852 36.4926 117.23 36.4867 116.613 36.4749C116.187 36.4749 116.045 36.6171 116.045 37.0437C116.068 38.9396 116.068 40.8356 116.045 42.7316C116.045 43.2056 116.234 43.3241 116.685 43.3241C117.135 43.3241 117.253 43.1345 117.23 42.7316C117.214 42.3366 117.219 41.9416 117.224 41.5466C117.227 41.3491 117.23 41.1516 117.23 40.9541C117.23 40.6223 117.277 40.4327 117.704 40.3853C119.552 40.172 119.813 40.2905 120.737 41.8547C120.783 41.9363 120.831 42.0144 120.88 42.0916C120.958 42.2165 121.034 42.3392 121.093 42.4709ZM118.746 39.6268H118.841C118.948 39.622 119.055 39.6181 119.163 39.6143C119.584 39.5992 120.014 39.5838 120.429 39.5083C121.045 39.3898 121.543 39.0343 121.519 38.3233C121.496 37.6598 120.951 37.4465 120.429 37.3517C119.737 37.2096 119.057 37.2272 118.372 37.2449C118.142 37.2509 117.912 37.2569 117.68 37.2569C117.467 37.2569 117.324 37.328 117.253 37.5887C116.874 39.058 117.277 39.6268 118.746 39.6268Z" fill="white"/>
<path fill-rule="evenodd" clip-rule="evenodd" d="M82.5804 43.4188C84.7845 43.4188 86.3724 41.9257 86.3724 39.8401C86.3724 37.7782 84.8319 36.3563 82.6041 36.3326C80.3289 36.3089 78.7173 37.8019 78.7173 39.9112C78.741 41.9968 80.2815 43.4188 82.5804 43.4188ZM82.5804 42.6842C84.1209 42.6842 85.1163 41.5466 85.1163 39.7929C85.1163 38.1576 84.1209 37.1148 82.6041 37.0911C81.0399 37.0911 79.9497 38.2524 79.9734 39.9351C79.9971 41.5703 81.0636 42.6842 82.5804 42.6842Z" fill="white"/>
<path fill-rule="evenodd" clip-rule="evenodd" d="M44.8265 39.9112C44.8265 42.0205 46.367 43.4188 48.6659 43.4188C50.941 43.4188 52.5289 41.902 52.4815 39.7927C52.4578 37.7782 50.8699 36.3325 48.6422 36.3562C46.4144 36.3562 44.8265 37.8493 44.8265 39.9112ZM48.6895 37.0911C47.1254 37.0911 46.1063 38.2287 46.1063 39.9351C46.13 41.594 47.1728 42.6842 48.7133 42.6605C50.23 42.6605 51.2728 41.4755 51.2491 39.7692C51.2254 38.1576 50.2063 37.0911 48.6895 37.0911Z" fill="white"/>
<path fill-rule="evenodd" clip-rule="evenodd" d="M126.994 39.8875C127.018 42.0442 128.511 43.4425 130.81 43.4188C133.085 43.4188 134.696 41.8783 134.649 39.769C134.602 37.7546 132.99 36.3089 130.786 36.3326C128.535 36.3326 126.994 37.7783 126.994 39.8875ZM130.833 37.0909C129.293 37.0672 128.226 38.2285 128.25 39.9349C128.274 41.5939 129.317 42.7078 130.833 42.6841C132.374 42.6604 133.417 41.4517 133.393 39.769C133.369 38.1574 132.35 37.0909 130.833 37.0909Z" fill="white"/>
<path fill-rule="evenodd" clip-rule="evenodd" d="M25.3452 39.8638C25.3452 42.0205 26.8382 43.4188 29.1371 43.4188C31.3886 43.4188 33.0002 41.9257 33.0002 39.7927C33.0002 37.7545 31.4123 36.3325 29.1845 36.3325C26.933 36.3325 25.3452 37.8019 25.3452 39.8638ZM29.1371 42.6842C30.7013 42.7079 31.7441 41.5703 31.7441 39.864C31.7441 38.1813 30.725 37.0911 29.1845 37.0911C27.6441 37.0911 26.625 38.1813 26.6013 39.864C26.6013 41.5466 27.5967 42.6605 29.1371 42.6842Z" fill="white"/>
<path fill-rule="evenodd" clip-rule="evenodd" d="M113.604 42.4947C113.817 43.3005 114.338 43.4901 115.12 43.2294C115.111 43.1841 115.106 43.1458 115.101 43.113C115.093 43.06 115.088 43.0217 115.073 42.9924C114.819 42.4221 114.563 41.8518 114.306 41.2809C113.678 39.8827 113.048 38.481 112.442 37.0674C112.229 36.546 111.897 36.4986 111.423 36.4749C110.902 36.4512 110.688 36.6645 110.499 37.0911C109.741 38.8684 108.959 40.622 108.177 42.3756L108.176 42.3762C108.145 42.4515 108.107 42.5251 108.069 42.5988C107.963 42.8036 107.857 43.0091 107.892 43.2531C108.437 43.3953 108.911 43.3953 109.029 42.7554C109.266 41.4756 110.072 41.1201 111.257 41.3097C111.399 41.3334 111.565 41.3334 111.708 41.3097C112.703 41.1201 113.343 41.4993 113.604 42.4947ZM111.702 38.2345C111.598 37.998 111.49 37.752 111.376 37.4939C111.245 37.7954 111.128 38.0389 111.022 38.2605C110.936 38.4395 110.857 38.6042 110.783 38.7737C110.713 38.9699 110.59 39.1869 110.469 39.4015C110.224 39.8348 109.985 40.2582 110.191 40.4801C110.484 40.7732 111.001 40.7195 111.526 40.6648C111.766 40.6399 112.007 40.6149 112.229 40.6223C112.584 40.646 112.727 40.5038 112.561 40.1483C112.278 39.5466 112.008 38.9317 111.702 38.2345Z" fill="white"/>
</svg>
